{
  "images" : [
    {
      "idiom" : "universal",
      "filename" : "LandmineToken Colorless Artifact - Pay 1, Sacrifice this artifact- This artifact deals 2 damage to target attacking creature without flying.png",
      "scale" : "1x"
    },
    {
      "idiom" : "universal",
      "filename" : "LandmineToken Colorless Artifact - Pay 1, Sacrifice this artifact- This artifact deals 2 damage to target attacking creature without flying@2x.png",
      "scale" : "2x"
    },
    {
      "idiom" : "universal",
      "filename" : "LandmineToken Colorless Artifact - Pay 1, Sacrifice this artifact- This artifact deals 2 damage to target attacking creature without flying@3x.png",
      "scale" : "3x"
    }
  ],
  "info" : {
    "version" : 1,
    "author" : "xcode"
  }
}