{
  "images" : [
    {
      "idiom" : "universal",
      "filename" : "BirdToken 2-2 Blue Echantment Creature Flying.png",
      "scale" : "1x"
    },
    {
      "idiom" : "universal",
      "filename" : "BirdToken 2-2 Blue Echantment Creature Flying@2x.png",
      "scale" : "2x"
    },
    {
      "idiom" : "universal",
      "filename" : "BirdToken 2-2 Blue Echantment Creature Flying@3x.png",
      "scale" : "3x"
    }
  ],
  "info" : {
    "version" : 1,
    "author" : "xcode"
  }
}