{
  "images" : [
    {
      "idiom" : "universal",
      "filename" : "BatToken 1-2 Black Flying, Pay 2, Sacrifice this creature- Return an exiled card named Sengir Nosferatu to the battlefield under its owner's control.png",
      "scale" : "1x"
    },
    {
      "idiom" : "universal",
      "filename" : "BatToken 1-2 Black Flying, Pay 2, Sacrifice this creature- Return an exiled card named Sengir Nosferatu to the battlefield under its owner's control@2x.png",
      "scale" : "2x"
    },
    {
      "idiom" : "universal",
      "filename" : "BatToken 1-2 Black Flying, Pay 2, Sacrifice this creature- Return an exiled card named Sengir Nosferatu to the battlefield under its owner's control@3x.png",
      "scale" : "3x"
    }
  ],
  "info" : {
    "version" : 1,
    "author" : "xcode"
  }
}