{
  "images" : [
    {
      "idiom" : "universal",
      "filename" : "DragonEggToken 0-2 Red - Defender, When this creature dies, create a 2-2 red Dragon creature token with flying and 'pay1 - This creature gets +1-+1 until the end of turn'.png",
      "scale" : "1x"
    },
    {
      "idiom" : "universal",
      "filename" : "DragonEggToken 0-2 Red - Defender, When this creature dies, create a 2-2 red Dragon creature token with flying and 'pay1 - This creature gets +1-+1 until the end of turn'@2x.png",
      "scale" : "2x"
    },
    {
      "idiom" : "universal",
      "filename" : "DragonEggToken 0-2 Red - Defender, When this creature dies, create a 2-2 red Dragon creature token with flying and 'pay1 - This creature gets +1-+1 until the end of turn'@3x.png",
      "scale" : "3x"
    }
  ],
  "info" : {
    "version" : 1,
    "author" : "xcode"
  }
}