{
  "images" : [
    {
      "idiom" : "universal",
      "filename" : "EldraziSpawnToken 0-1 Colorless Sacrifice this creature- Add 1 to your mana pool.png",
      "scale" : "1x"
    },
    {
      "idiom" : "universal",
      "filename" : "EldraziSpawnToken 0-1 Colorless Sacrifice this creature- Add 1 to your mana pool@2x.png",
      "scale" : "2x"
    },
    {
      "idiom" : "universal",
      "filename" : "EldraziSpawnToken 0-1 Colorless Sacrifice this creature- Add 1 to your mana pool@3x.png",
      "scale" : "3x"
    }
  ],
  "info" : {
    "version" : 1,
    "author" : "xcode"
  }
}