{
  "images" : [
    {
      "idiom" : "universal",
      "filename" : "TriskelaviteToken 1-1 Colorless - Artifact Creature - Flying - Sacrifice this creature- This creature deals 1 damage to target creature or player..png",
      "scale" : "1x"
    },
    {
      "idiom" : "universal",
      "filename" : "TriskelaviteToken 1-1 Colorless - Artifact Creature - Flying - Sacrifice this creature- This creature deals 1 damage to target creature or player.@2x.png",
      "scale" : "2x"
    },
    {
      "idiom" : "universal",
      "filename" : "TriskelaviteToken 1-1 Colorless - Artifact Creature - Flying - Sacrifice this creature- This creature deals 1 damage to target creature or player.@3x.png",
      "scale" : "3x"
    }
  ],
  "info" : {
    "version" : 1,
    "author" : "xcode"
  }
}