{
  "images" : [
    {
      "idiom" : "universal",
      "filename" : "DemonSpiritToken 5-5 Black Flying \"Urami\".png",
      "scale" : "1x"
    },
    {
      "idiom" : "universal",
      "filename" : "DemonSpiritToken 5-5 Black Flying \"Urami\"@2x.png",
      "scale" : "2x"
    },
    {
      "idiom" : "universal",
      "filename" : "DemonSpiritToken 5-5 Black Flying \"Urami\"@3x.png",
      "scale" : "3x"
    }
  ],
  "info" : {
    "version" : 1,
    "author" : "xcode"
  }
}